{
    "id": "t26",
    "relevant": [
        262804,
        218913,
        205296,
        231090,
        192880,
        194823,
        263884,
        193011,
        205367,
        230728,
        186388
    ]
}