{
    "id": "t40",
    "relevant": [
        201201,
        204726,
        251060,
        242533,
        251260,
        205203,
        263830,
        223861,
        214961,
        200854
    ]
}