{
    "id": "t41",
    "relevant": [
        226773,
        232104,
        185164,
        218775,
        221027,
        220272,
        218797,
        198103,
        231074,
        226742,
        242597,
        263365,
        198568,
        263348,
        263268,
        262993,
        198282,
        214907
    ]
}