{
    "id": "t46",
    "relevant": [
        264074,
        262966,
        263956,
        196363,
        268019,
        192985,
        200920,
        263802,
        262066,
        186525,
        214496,
        263828,
        193698,
        233235,
        262088
    ]
}