{
    "id": "t47",
    "relevant": [
        242477,
        194880,
        262526,
        185503,
        193015,
        201038,
        262605,
        193672,
        226807,
        263338,
        263628,
        194961,
        190037,
        226777
    ]
}