{
    "id": "t48",
    "relevant": [
        214470,
        214388,
        186646,
        214825,
        214830,
        198457,
        214566,
        196343,
        226880,
        214503,
        251487,
        251123,
        221035,
        226974,
        251816
    ]
}