{
  "mappings": {
    "properties": {
      "acronym": {
        "type": "text"
      },
      "organisations involved": {
        "type": "text",
        "fields": {
          "keyword": {
            "type": "keyword",
            "ignore_above": 256
          },
          "std": {
            "type": "text",
            "analyzer": "english"
          }
        }
      },
      "project": {
        "type": "long"
      },
      "publications": {
        "type": "text",
        "fields": {
          "keyword": {
            "type": "keyword",
            "ignore_above": 256
          },
          "std": {
            "type": "text",
            "analyzer": "english"
          }
        }
      },
      "results": {
        "type": "text",
        "fields": {
          "keyword": {
            "type": "keyword",
            "ignore_above": 256
          },
          "std": {
            "type": "text",
            "analyzer": "english"
          }
        }
      },
      "summary": {
        "type": "text",
        "fields": {
          "keyword": {
            "type": "keyword",
            "ignore_above": 256
          },
          "std": {
            "type": "text",
            "analyzer": "english"
          }
        }
      },
      "title": {
        "type": "text",
        "fields": {
          "keyword": {
            "type": "keyword",
            "ignore_above": 256
          },
          "std": {
            "type": "text",
            "analyzer": "english"
          }
        }
      },
      "work performed": {
        "type": "text",
        "fields": {
          "keyword": {
            "type": "keyword",
            "ignore_above": 256
          },
          "std": {
            "type": "text",
            "analyzer": "english"
          }
        }
      }
    }
  }
}